{
  "behaviour": 2,
  "force_threshold": 20.0,
  "rectangles": [[[0, 0], [1, 4]]],
  "data_connectors": [[0.5, -0.5]],
  "physical_connectors": [
    [[0.5, 0.0], 64.0],
    [[0.5, -1.0], 64.0]
  ]
}
